{
    "accessors" : [
        {
            "bufferView" : 0,
            "componentType" : 5123,
            "count" : 1644,
            "max" : [
                967
            ],
            "min" : [
                0
            ],
            "type" : "SCALAR"
        },
        {
            "bufferView" : 1,
            "componentType" : 5126,
            "count" : 968,
            "max" : [
                2.846679210662842,
                1.1673431396484375,
                2.2481698989868164
            ],
            "min" : [
                -2.451183319091797,
                -0.7451353669166565,
                -0.49393749237060547
            ],
            "type" : "VEC3"
        },
        {
            "bufferView" : 2,
            "componentType" : 5126,
            "count" : 968,
            "max" : [
                0.976986825466156,
                0.9887213110923767,
                0.997214674949646
            ],
            "min" : [
                -0.9736559391021729,
                -0.987328052520752,
                -0.9867360591888428
            ],
            "type" : "VEC3"
        },
        {
            "bufferView" : 3,
            "componentType" : 5126,
            "count" : 968,
            "max" : [
                3.9458813667297363,
                1.9764957427978516,
                1.8142002820968628
            ],
            "min" : [
                -0.9177781343460083,
                1.082992434501648,
                -0.16158801317214966
            ],
            "type" : "VEC3"
        },
        {
            "bufferView" : 4,
            "componentType" : 5126,
            "count" : 968,
            "max" : [
                0.7094944715499878,
                1.1328363418579102,
                0.9631883502006531
            ],
            "min" : [
                -0.7030888795852661,
                -1.0850287675857544,
                -0.9801653623580933
            ],
            "type" : "VEC3"
        },
        {
            "bufferView" : 5,
            "componentType" : 5126,
            "count" : 968,
            "max" : [
                2.4225270748138428,
                -0.7077949643135071,
                0.4903065264225006
            ],
            "min" : [
                -2.4601125717163086,
                -2.470381736755371,
                -2.036886692047119
            ],
            "type" : "VEC3"
        },
        {
            "bufferView" : 6,
            "componentType" : 5126,
            "count" : 968,
            "max" : [
                4.9233436584472656e-05,
                6.884336471557617e-05,
                0.0016357526183128357
            ],
            "min" : [
                -0.0006318986415863037,
                -0.0002136826515197754,
                -0.0002810359001159668
            ],
            "type" : "VEC3"
        },
        {
            "bufferView" : 7,
            "componentType" : 5123,
            "count" : 2271,
            "max" : [
                1290
            ],
            "min" : [
                0
            ],
            "type" : "SCALAR"
        },
        {
            "bufferView" : 8,
            "componentType" : 5126,
            "count" : 1291,
            "max" : [
                2.4631729125976562,
                0.8402891755104065,
                2.944293975830078
            ],
            "min" : [
                -2.4631729125976562,
                -0.8432151079177856,
                -0.7468793988227844
            ],
            "type" : "VEC3"
        },
        {
            "bufferView" : 9,
            "componentType" : 5126,
            "count" : 1291,
            "max" : [
                0.9786232113838196,
                0.9923222661018372,
                0.9516990780830383
            ],
            "min" : [
                -0.9814568161964417,
                -0.9989193677902222,
                -0.9922593832015991
            ],
            "type" : "VEC3"
        },
        {
            "bufferView" : 10,
            "componentType" : 5126,
            "count" : 1291,
            "max" : [
                1.0973153114318848,
                1.0904724597930908,
                0.8440313935279846
            ],
            "min" : [
                -1.1221840381622314,
                0.7807342410087585,
                -1.8757669925689697
            ],
            "type" : "VEC3"
        },
        {
            "bufferView" : 11,
            "componentType" : 5126,
            "count" : 1291,
            "max" : [
                0.5294473767280579,
                1.6193946599960327,
                0.6139942407608032
            ],
            "min" : [
                -0.42290759086608887,
                -0.8542636632919312,
                -0.6236063838005066
            ],
            "type" : "VEC3"
        },
        {
            "bufferView" : 12,
            "componentType" : 5126,
            "count" : 1291,
            "max" : [
                2.33616042137146,
                -0.44260334968566895,
                0.19198083877563477
            ],
            "min" : [
                -2.1620688438415527,
                -1.9798054695129395,
                -3.1784169673919678
            ],
            "type" : "VEC3"
        },
        {
            "bufferView" : 13,
            "componentType" : 5126,
            "count" : 1291,
            "max" : [
                0.00019280984997749329,
                0.9504299163818359,
                0.0940706878900528
            ],
            "min" : [
                -1.2051420211791992,
                -0.0012400150299072266,
                -0.00028145313262939453
            ],
            "type" : "VEC3"
        },
        {
            "bufferView" : 14,
            "componentType" : 5121,
            "count" : 390,
            "max" : [
                233
            ],
            "min" : [
                0
            ],
            "type" : "SCALAR"
        },
        {
            "bufferView" : 15,
            "componentType" : 5126,
            "count" : 234,
            "max" : [
                0.9937677383422852,
                0.8908631801605225,
                1.0047221183776855
            ],
            "min" : [
                -0.9937677383422852,
                -1.1704580783843994,
                -0.5702301263809204
            ],
            "type" : "VEC3"
        },
        {
            "bufferView" : 16,
            "componentType" : 5126,
            "count" : 234,
            "max" : [
                0.9736476540565491,
                0.9989015460014343,
                0.9668729305267334
            ],
            "min" : [
                -0.9736476540565491,
                -1.0,
                -0.9668903946876526
            ],
            "type" : "VEC3"
        },
        {
            "bufferView" : 17,
            "componentType" : 5126,
            "count" : 234,
            "max" : [
                1.5222210884094238,
                1.0421357154846191,
                0.35401400923728943
            ],
            "min" : [
                -1.5326900482177734,
                0.8532801866531372,
                -2.961177349090576
            ],
            "type" : "VEC3"
        },
        {
            "bufferView" : 18,
            "componentType" : 5126,
            "count" : 234,
            "max" : [
                1.0839169025421143,
                0.514901876449585,
                1.46438729763031
            ],
            "min" : [
                -1.0842645168304443,
                -1.0004409551620483,
                -1.4741783142089844
            ],
            "type" : "VEC3"
        },
        {
            "bufferView" : 19,
            "componentType" : 5126,
            "count" : 234,
            "max" : [
                0.8442755937576294,
                -1.1205909252166748,
                0.6713504791259766
            ],
            "min" : [
                -0.8442476391792297,
                -2.8717992305755615,
                -0.666659951210022
            ],
            "type" : "VEC3"
        },
        {
            "bufferView" : 20,
            "componentType" : 5126,
            "count" : 234,
            "max" : [
                1.9669532775878906e-06,
                2.294778823852539e-06,
                3.635883331298828e-06
            ],
            "min" : [
                -2.339482307434082e-06,
                -3.427267074584961e-06,
                -5.54695725440979e-06
            ],
            "type" : "VEC3"
        },
        {
            "bufferView" : 21,
            "componentType" : 5123,
            "count" : 780,
            "max" : [
                659
            ],
            "min" : [
                0
            ],
            "type" : "SCALAR"
        },
        {
            "bufferView" : 22,
            "componentType" : 5126,
            "count" : 660,
            "max" : [
                1.0219799280166626,
                1.202884316444397,
                1.0754075050354004
            ],
            "min" : [
                -1.0235705375671387,
                -0.6328098177909851,
                -1.0754075050354004
            ],
            "type" : "VEC3"
        },
        {
            "bufferView" : 23,
            "componentType" : 5126,
            "count" : 660,
            "max" : [
                0.9947720170021057,
                1.0,
                0.9509537816047668
            ],
            "min" : [
                -0.9984685182571411,
                -1.0,
                -0.9532169103622437
            ],
            "type" : "VEC3"
        },
        {
            "bufferView" : 24,
            "componentType" : 5126,
            "count" : 660,
            "max" : [
                1.0,
                1.0
            ],
            "min" : [
                0.0,
                0.0
            ],
            "type" : "VEC2"
        },
        {
            "bufferView" : 25,
            "componentType" : 5123,
            "count" : 660,
            "max" : [
                0,
                0,
                0,
                0
            ],
            "min" : [
                0,
                0,
                0,
                0
            ],
            "type" : "VEC4"
        },
        {
            "bufferView" : 26,
            "componentType" : 5126,
            "count" : 660,
            "max" : [
                0.0,
                0.0,
                0.0,
                0.0
            ],
            "min" : [
                0.0,
                0.0,
                0.0,
                0.0
            ],
            "type" : "VEC4"
        },
        {
            "bufferView" : 27,
            "componentType" : 5126,
            "count" : 660,
            "max" : [
                0.9563850164413452,
                0.842180073261261,
                0.32424110174179077
            ],
            "min" : [
                -1.0225976705551147,
                -0.9282588958740234,
                -0.3466890752315521
            ],
            "type" : "VEC3"
        },
        {
            "bufferView" : 28,
            "componentType" : 5126,
            "count" : 660,
            "max" : [
                0.245361328125,
                0.40662240982055664,
                0.1117658019065857
            ],
            "min" : [
                -0.24312365055084229,
                -0.438942015171051,
                -0.11333775520324707
            ],
            "type" : "VEC3"
        },
        {
            "bufferView" : 29,
            "componentType" : 5126,
            "count" : 660,
            "max" : [
                0.38698697090148926,
                0.4964785575866699,
                0.4298015832901001
            ],
            "min" : [
                -0.23793476819992065,
                -0.4962347745895386,
                -0.28557705879211426
            ],
            "type" : "VEC3"
        },
        {
            "bufferView" : 30,
            "componentType" : 5126,
            "count" : 660,
            "max" : [
                1.0285385847091675,
                1.848280906677246,
                1.630091905593872
            ],
            "min" : [
                -1.424867868423462,
                -1.8682715892791748,
                -1.093832015991211
            ],
            "type" : "VEC3"
        },
        {
            "bufferView" : 31,
            "componentType" : 5126,
            "count" : 660,
            "max" : [
                0.8960418701171875,
                0.7701112031936646,
                0.9460692405700684
            ],
            "min" : [
                -0.8994612693786621,
                -0.841188371181488,
                -0.9418308734893799
            ],
            "type" : "VEC3"
        },
        {
            "bufferView" : 32,
            "componentType" : 5126,
            "count" : 660,
            "max" : [
                7.14758925823844e-06,
                1.9073486328125e-06,
                4.291534423828125e-06
            ],
            "min" : [
                -8.117465768009424e-06,
                -3.2782554626464844e-06,
                -3.75392846763134e-06
            ],
            "type" : "VEC3"
        },
        {
            "bufferView" : 33,
            "componentType" : 5121,
            "count" : 144,
            "max" : [
                59
            ],
            "min" : [
                0
            ],
            "type" : "SCALAR"
        },
        {
            "bufferView" : 34,
            "componentType" : 5126,
            "count" : 60,
            "max" : [
                0.9213027954101562,
                0.6511164903640747,
                0.9690288305282593
            ],
            "min" : [
                -0.92142653465271,
                -0.24900633096694946,
                -0.9365571737289429
            ],
            "type" : "VEC3"
        },
        {
            "bufferView" : 35,
            "componentType" : 5126,
            "count" : 60,
            "max" : [
                5.208250968280481e-06,
                1.0,
                1.677453951742791e-06
            ],
            "min" : [
                -1.3104636309435591e-05,
                -1.0,
                -1.4023700603549294e-11
            ],
            "type" : "VEC3"
        },
        {
            "bufferView" : 36,
            "componentType" : 5126,
            "count" : 60,
            "max" : [
                0.9755282402038574,
                1.0
            ],
            "min" : [
                0.024471759796142578,
                0.0
            ],
            "type" : "VEC2"
        },
        {
            "bufferView" : 37,
            "componentType" : 5123,
            "count" : 60,
            "max" : [
                0,
                0,
                0,
                0
            ],
            "min" : [
                0,
                0,
                0,
                0
            ],
            "type" : "VEC4"
        },
        {
            "bufferView" : 38,
            "componentType" : 5126,
            "count" : 60,
            "max" : [
                0.0,
                0.0,
                0.0,
                0.0
            ],
            "min" : [
                0.0,
                0.0,
                0.0,
                0.0
            ],
            "type" : "VEC4"
        },
        {
            "bufferView" : 39,
            "componentType" : 5126,
            "count" : 60,
            "max" : [
                0.9550538063049316,
                0.8354167342185974,
                0.3237897753715515
            ],
            "min" : [
                -1.0213260650634766,
                -0.8992146253585815,
                -0.3462579548358917
            ],
            "type" : "VEC3"
        },
        {
            "bufferView" : 40,
            "componentType" : 5126,
            "count" : 60,
            "max" : [
                0.19884029030799866,
                0.02507925033569336,
                0.06741238385438919
            ],
            "min" : [
                -0.22035180032253265,
                -0.027447283267974854,
                -0.07470522075891495
            ],
            "type" : "VEC3"
        },
        {
            "bufferView" : 41,
            "componentType" : 5126,
            "count" : 60,
            "max" : [
                0.00017118453979492188,
                0.4964785575866699,
                0.00021249055862426758
            ],
            "min" : [
                -0.00017333030700683594,
                -0.4962347745895386,
                -0.00019413232803344727
            ],
            "type" : "VEC3"
        },
        {
            "bufferView" : 42,
            "componentType" : 5126,
            "count" : 60,
            "max" : [
                0.09657565504312515,
                0.020233869552612305,
                0.04472548887133598
            ],
            "min" : [
                -0.17854635417461395,
                -0.01598215103149414,
                -0.09045060724020004
            ],
            "type" : "VEC3"
        },
        {
            "bufferView" : 43,
            "componentType" : 5126,
            "count" : 60,
            "max" : [
                0.8063839077949524,
                0.433223694562912,
                0.8241919875144958
            ],
            "min" : [
                -0.8110908269882202,
                -0.3568684458732605,
                -0.8484559059143066
            ],
            "type" : "VEC3"
        },
        {
            "bufferView" : 44,
            "componentType" : 5126,
            "count" : 60,
            "max" : [
                1.6073636288638227e-07,
                5.960464477539063e-08,
                2.927663445007056e-09
            ],
            "min" : [
                -2.836877843748198e-09,
                0.0,
                -4.518909690887085e-10
            ],
            "type" : "VEC3"
        },
        {
            "bufferView" : 45,
            "componentType" : 5126,
            "count" : 21,
            "max" : [
                0.8333333333333334
            ],
            "min" : [
                0.0
            ],
            "type" : "SCALAR"
        },
        {
            "bufferView" : 46,
            "componentType" : 5126,
            "count" : 42,
            "max" : [
                1.0
            ],
            "min" : [
                0.0
            ],
            "type" : "SCALAR"
        },
        {
            "bufferView" : 47,
            "componentType" : 5126,
            "count" : 21,
            "max" : [
                0.8333333333333334
            ],
            "min" : [
                0.0
            ],
            "type" : "SCALAR"
        },
        {
            "bufferView" : 48,
            "componentType" : 5126,
            "count" : 84,
            "max" : [
                1.0
            ],
            "min" : [
                0.0
            ],
            "type" : "SCALAR"
        }
    ],
    "animations" : [
        {
            "channels" : [
                {
                    "sampler" : 0,
                    "target" : {
                        "node" : 0,
                        "path" : "weights"
                    }
                },
                {
                    "sampler" : 0,
                    "target" : {
                        "node" : 1,
                        "path" : "weights"
                    }
                },
                {
                    "sampler" : 0,
                    "target" : {
                        "node" : 2,
                        "path" : "weights"
                    }
                }
            ],
            "name" : "Leaf-03-Slice.001",
            "samplers" : [
                {
                    "input" : 45,
                    "interpolation" : "LINEAR",
                    "output" : 46
                }
            ]
        },
        {
            "channels" : [
                {
                    "sampler" : 0,
                    "target" : {
                        "node" : 3,
                        "path" : "weights"
                    }
                }
            ],
            "name" : "Pineapple-Slice",
            "samplers" : [
                {
                    "input" : 47,
                    "interpolation" : "LINEAR",
                    "output" : 48
                }
            ]
        }
    ],
    "asset" : {
        "generator" : "Khronos Blender glTF 2.0 exporter",
        "version" : "2.0"
    },
    "bufferViews" : [
        {
            "buffer" : 0,
            "byteLength" : 3288,
            "byteOffset" : 0,
            "target" : 34963
        },
        {
            "buffer" : 0,
            "byteLength" : 11616,
            "byteOffset" : 3288,
            "target" : 34962
        },
        {
            "buffer" : 0,
            "byteLength" : 11616,
            "byteOffset" : 14904,
            "target" : 34962
        },
        {
            "buffer" : 0,
            "byteLength" : 11616,
            "byteOffset" : 26520
        },
        {
            "buffer" : 0,
            "byteLength" : 11616,
            "byteOffset" : 38136
        },
        {
            "buffer" : 0,
            "byteLength" : 11616,
            "byteOffset" : 49752
        },
        {
            "buffer" : 0,
            "byteLength" : 11616,
            "byteOffset" : 61368
        },
        {
            "buffer" : 0,
            "byteLength" : 4542,
            "byteOffset" : 72984,
            "target" : 34963
        },
        {
            "buffer" : 0,
            "byteLength" : 15492,
            "byteOffset" : 77528,
            "target" : 34962
        },
        {
            "buffer" : 0,
            "byteLength" : 15492,
            "byteOffset" : 93020,
            "target" : 34962
        },
        {
            "buffer" : 0,
            "byteLength" : 15492,
            "byteOffset" : 108512
        },
        {
            "buffer" : 0,
            "byteLength" : 15492,
            "byteOffset" : 124004
        },
        {
            "buffer" : 0,
            "byteLength" : 15492,
            "byteOffset" : 139496
        },
        {
            "buffer" : 0,
            "byteLength" : 15492,
            "byteOffset" : 154988
        },
        {
            "buffer" : 0,
            "byteLength" : 390,
            "byteOffset" : 170480,
            "target" : 34963
        },
        {
            "buffer" : 0,
            "byteLength" : 2808,
            "byteOffset" : 170872,
            "target" : 34962
        },
        {
            "buffer" : 0,
            "byteLength" : 2808,
            "byteOffset" : 173680,
            "target" : 34962
        },
        {
            "buffer" : 0,
            "byteLength" : 2808,
            "byteOffset" : 176488
        },
        {
            "buffer" : 0,
            "byteLength" : 2808,
            "byteOffset" : 179296
        },
        {
            "buffer" : 0,
            "byteLength" : 2808,
            "byteOffset" : 182104
        },
        {
            "buffer" : 0,
            "byteLength" : 2808,
            "byteOffset" : 184912
        },
        {
            "buffer" : 0,
            "byteLength" : 1560,
            "byteOffset" : 187720,
            "target" : 34963
        },
        {
            "buffer" : 0,
            "byteLength" : 7920,
            "byteOffset" : 189280,
            "target" : 34962
        },
        {
            "buffer" : 0,
            "byteLength" : 7920,
            "byteOffset" : 197200,
            "target" : 34962
        },
        {
            "buffer" : 0,
            "byteLength" : 5280,
            "byteOffset" : 205120,
            "target" : 34962
        },
        {
            "buffer" : 0,
            "byteLength" : 5280,
            "byteOffset" : 210400,
            "target" : 34962
        },
        {
            "buffer" : 0,
            "byteLength" : 10560,
            "byteOffset" : 215680,
            "target" : 34962
        },
        {
            "buffer" : 0,
            "byteLength" : 7920,
            "byteOffset" : 226240
        },
        {
            "buffer" : 0,
            "byteLength" : 7920,
            "byteOffset" : 234160
        },
        {
            "buffer" : 0,
            "byteLength" : 7920,
            "byteOffset" : 242080
        },
        {
            "buffer" : 0,
            "byteLength" : 7920,
            "byteOffset" : 250000
        },
        {
            "buffer" : 0,
            "byteLength" : 7920,
            "byteOffset" : 257920
        },
        {
            "buffer" : 0,
            "byteLength" : 7920,
            "byteOffset" : 265840
        },
        {
            "buffer" : 0,
            "byteLength" : 144,
            "byteOffset" : 273760,
            "target" : 34963
        },
        {
            "buffer" : 0,
            "byteLength" : 720,
            "byteOffset" : 273904,
            "target" : 34962
        },
        {
            "buffer" : 0,
            "byteLength" : 720,
            "byteOffset" : 274624,
            "target" : 34962
        },
        {
            "buffer" : 0,
            "byteLength" : 480,
            "byteOffset" : 275344,
            "target" : 34962
        },
        {
            "buffer" : 0,
            "byteLength" : 480,
            "byteOffset" : 275824,
            "target" : 34962
        },
        {
            "buffer" : 0,
            "byteLength" : 960,
            "byteOffset" : 276304,
            "target" : 34962
        },
        {
            "buffer" : 0,
            "byteLength" : 720,
            "byteOffset" : 277264
        },
        {
            "buffer" : 0,
            "byteLength" : 720,
            "byteOffset" : 277984
        },
        {
            "buffer" : 0,
            "byteLength" : 720,
            "byteOffset" : 278704
        },
        {
            "buffer" : 0,
            "byteLength" : 720,
            "byteOffset" : 279424
        },
        {
            "buffer" : 0,
            "byteLength" : 720,
            "byteOffset" : 280144
        },
        {
            "buffer" : 0,
            "byteLength" : 720,
            "byteOffset" : 280864
        },
        {
            "buffer" : 0,
            "byteLength" : 84,
            "byteOffset" : 281584
        },
        {
            "buffer" : 0,
            "byteLength" : 168,
            "byteOffset" : 281668
        },
        {
            "buffer" : 0,
            "byteLength" : 84,
            "byteOffset" : 281836
        },
        {
            "buffer" : 0,
            "byteLength" : 336,
            "byteOffset" : 281920
        }
    ],
    "buffers" : [
        {
            "byteLength" : 282256,
            "uri" : "Pineapple-03.bin"
        }
    ],
    "materials" : [
        {
            "emissiveFactor" : [
                0.022993940860033035,
                0.022993940860033035,
                0.022993940860033035
            ],
            "name" : "Material",
            "pbrMetallicRoughness" : {
                "baseColorFactor" : [
                    1.0,
                    0.479320228099823,
                    0.004391442518681288,
                    1.0
                ],
                "metallicFactor" : 0.7454545497894287,
                "roughnessFactor" : 0.4909090995788574
            }
        },
        {
            "emissiveFactor" : [
                0.9559733867645264,
                1.0,
                0.19120171666145325
            ],
            "name" : "Material.001",
            "pbrMetallicRoughness" : {
                "baseColorFactor" : [
                    1.0,
                    0.9301109313964844,
                    0.03433981165289879,
                    1.0
                ],
                "metallicFactor" : 0.418181836605072,
                "roughnessFactor" : 0.7545454502105713
            }
        },
        {
            "emissiveFactor" : [
                0.006231208331882954,
                0.006231208331882954,
                0.006231208331882954
            ],
            "name" : "Material.006",
            "pbrMetallicRoughness" : {
                "baseColorFactor" : [
                    0.0,
                    0.2746773064136505,
                    0.03433981165289879,
                    1.0
                ],
                "metallicFactor" : 0.40909093618392944,
                "roughnessFactor" : 0.7363636493682861
            }
        },
        {
            "emissiveFactor" : [
                0.006231208331882954,
                0.006231208331882954,
                0.006231208331882954
            ],
            "name" : "Material.019",
            "pbrMetallicRoughness" : {
                "baseColorFactor" : [
                    0.0,
                    0.4677838385105133,
                    0.054480284452438354,
                    1.0
                ],
                "metallicFactor" : 0.40909093618392944,
                "roughnessFactor" : 0.7363636493682861
            }
        },
        {
            "emissiveFactor" : [
                0.006231208331882954,
                0.006231208331882954,
                0.006231208331882954
            ],
            "name" : "Material.021",
            "pbrMetallicRoughness" : {
                "baseColorFactor" : [
                    0.0,
                    0.2746773064136505,
                    0.03433981165289879,
                    1.0
                ],
                "metallicFactor" : 0.40909093618392944,
                "roughnessFactor" : 0.7363636493682861
            }
        }
    ],
    "meshes" : [
        {
            "extras" : {
                "targetNames" : [
                    "Sliced",
                    "Shrink"
                ]
            },
            "name" : "Cone.044",
            "primitives" : [
                {
                    "attributes" : {
                        "NORMAL" : 2,
                        "POSITION" : 1
                    },
                    "indices" : 0,
                    "material" : 3,
                    "targets" : [
                        {
                            "NORMAL" : 4,
                            "POSITION" : 3
                        },
                        {
                            "NORMAL" : 6,
                            "POSITION" : 5
                        }
                    ]
                }
            ],
            "weights" : [
                0.0,
                0.0
            ]
        },
        {
            "extras" : {
                "targetNames" : [
                    "Sliced",
                    "Shrink"
                ]
            },
            "name" : "Cone.031",
            "primitives" : [
                {
                    "attributes" : {
                        "NORMAL" : 9,
                        "POSITION" : 8
                    },
                    "indices" : 7,
                    "material" : 2,
                    "targets" : [
                        {
                            "NORMAL" : 11,
                            "POSITION" : 10
                        },
                        {
                            "NORMAL" : 13,
                            "POSITION" : 12
                        }
                    ]
                }
            ],
            "weights" : [
                0.0,
                0.0
            ]
        },
        {
            "extras" : {
                "targetNames" : [
                    "Sliced",
                    "Shrink"
                ]
            },
            "name" : "Cone.046",
            "primitives" : [
                {
                    "attributes" : {
                        "NORMAL" : 16,
                        "POSITION" : 15
                    },
                    "indices" : 14,
                    "material" : 4,
                    "targets" : [
                        {
                            "NORMAL" : 18,
                            "POSITION" : 17
                        },
                        {
                            "NORMAL" : 20,
                            "POSITION" : 19
                        }
                    ]
                }
            ],
            "weights" : [
                0.0,
                0.0
            ]
        },
        {
            "extras" : {
                "targetNames" : [
                    "Sliced",
                    "Explode",
                    "Shrink"
                ]
            },
            "name" : "Icosphere.001",
            "primitives" : [
                {
                    "attributes" : {
                        "JOINTS_0" : 25,
                        "NORMAL" : 23,
                        "POSITION" : 22,
                        "TEXCOORD_0" : 24,
                        "WEIGHTS_0" : 26
                    },
                    "indices" : 21,
                    "material" : 0,
                    "targets" : [
                        {
                            "NORMAL" : 28,
                            "POSITION" : 27
                        },
                        {
                            "NORMAL" : 30,
                            "POSITION" : 29
                        },
                        {
                            "NORMAL" : 32,
                            "POSITION" : 31
                        }
                    ]
                },
                {
                    "attributes" : {
                        "JOINTS_0" : 37,
                        "NORMAL" : 35,
                        "POSITION" : 34,
                        "TEXCOORD_0" : 36,
                        "WEIGHTS_0" : 38
                    },
                    "indices" : 33,
                    "material" : 1,
                    "targets" : [
                        {
                            "NORMAL" : 40,
                            "POSITION" : 39
                        },
                        {
                            "NORMAL" : 42,
                            "POSITION" : 41
                        },
                        {
                            "NORMAL" : 44,
                            "POSITION" : 43
                        }
                    ]
                }
            ],
            "weights" : [
                0.0,
                0.0,
                0.0
            ]
        }
    ],
    "nodes" : [
        {
            "mesh" : 0,
            "name" : "Leaf-01",
            "rotation" : [
                -0.12212523072957993,
                0.1311326026916504,
                0.01628030836582184,
                0.9836791753768921
            ],
            "scale" : [
                0.9560446739196777,
                2.811281204223633,
                1.7917202711105347
            ],
            "translation" : [
                -0.465639591217041,
                4.643136501312256,
                -1.0086321830749512
            ]
        },
        {
            "mesh" : 1,
            "name" : "Leaf-02",
            "rotation" : [
                -0.08711954951286316,
                -0.7017194628715515,
                -0.08711954951286316,
                0.7017194628715515
            ],
            "scale" : [
                1.0134832859039307,
                4.810679912567139,
                1.4056955575942993
            ],
            "translation" : [
                0.8430898189544678,
                6.836089611053467,
                0.005216760560870171
            ]
        },
        {
            "mesh" : 2,
            "name" : "Leaf-03",
            "rotation" : [
                0.0,
                -0.7071068286895752,
                -0.0,
                0.7071067690849304
            ],
            "scale" : [
                0.8946225643157959,
                3.896702766418457,
                1.4056953191757202
            ],
            "translation" : [
                0.3090963363647461,
                9.345808029174805,
                0.005216760560870171
            ]
        },
        {
            "mesh" : 3,
            "name" : "Pineapple",
            "rotation" : [
                0.0,
                0.16270683705806732,
                -0.0,
                0.9866745471954346
            ],
            "scale" : [
                3.6100263595581055,
                5.315539836883545,
                3.6100263595581055
            ],
            "translation" : [
                0.0,
                -1.0955071449279785,
                -0.0
            ]
        }
    ],
    "scene" : 0,
    "scenes" : [
        {
            "name" : "Scene",
            "nodes" : [
                3,
                0,
                2,
                1
            ]
        }
    ]
}
